SIDO_CD SIDO_NM ETL_DTM
01	강원	20211113092550
02	경기	20211113092550
03	경남	20211113092550
04	경북	20211113092550
05	광주	20211113092550
06	대구	20211113092550
07	대전	20211113092550
08	부산	20211113092550
09	서울	20211113092550
10	울산	20211113092550
11	인천	20211113092550
12	전남	20211113092550
13	전북	20211113092550
14	제주	20211113092550
15	충남	20211113092550
16	충북	20211113092550
17	세종	20211113092550
