STD_DT	SECT_L_CD	SECT_M_CD	SUP_CD	BRAND_CD	CUST_KEY	ACT_LVL_CD	NEW_CUST_YN	ORD_YN	TOT_ORD_AMT	TOT_ORD_QTY	TOT_ORD_CNT	ETL_DTM
20211016	1513109	1514390	1012747	7788	757d91298de1c040e615dc3d072110f54fe6313833d5e91a0dbc349f1a2b174a	A	N	Y	44545	1	1	20211127202320
20211016	1513109	1514390	1012747	7788	d03b3c13570991762d22651eed119420ad258e9efffa3418b2413d170a5d7c78	A	N	Y	39727	1	1	20211127202320
20211016	1513109	1514390	1012747	7788	bb03a43d34478f89cef0c3e89a1fd878dee3f89f6670b4f4cf466e4f8ad16d66	A	N	Y	44545	1	1	20211127202320
20211016	1513109	1514390	1012747	7788	2b12b33dbcac2e69440fb6465c3cf4d823df7a3d47dc76b3c5c850af36eec2ec	A	N	Y	44545	1	1	20211127202320
20211016	1513109	1514390	1012747	7788	d947acec3460da1e052e38957654f1ea5b5806c5aad16cb0e531aba9df87e545	A	N	Y	44545	1	1	20211127202320
20211016	1513109	1514390	1012747	7788	97d6db67acee4ade5050dc3c41da732b57e2c064dba290745f5e2e65a7c0eb02	A	N	Y	44545	1	1	20211127202320
20211016	1513109	1514390	1012747	7788	b322462f18900fbae9c9ce46ecb34fd909f9b6dea3616bb15f6775f9ce2eb726	A	N	Y	44545	1	1	20211127202320
20211016	1513109	1514390	1012747	7788	1d686b48629be51d78d1f5fb449fb65c4942990992a66cad0bc54957a4c3c003	A	N	Y	42318	1	1	20211127202320
20211016	1513109	1514390	1012747	7788	ab7b23e471f330390fcffb45447681bd894abab2eebb47b7d60006781bd364d5	A	N	Y	44545	1	1	20211127202320
20211016	1513109	1514390	1012747	7788	3656ff57682ddca6cd400ebd700b6bf2880c119732b9c694ce5ddd1e42c1b4f8	A	N	Y	44545	1	1	20211127202320
20211016	1513109	1514390	1012747	7788	77105d40e5483da2c6efb9f183379d9db411f8a74a776034de7c2bde4b9b661b	A	N	Y	44545	1	1	20211127202320
20211016	1513109	1514390	1012747	7788	f268927406de67baf2085089b9bb7bb17c0323a4753073ef87043cc70f43b662	L	N	Y	40209	1	1	20211127202320
20211016	1513109	1514390	1012747	7788	9cb2a9d7af4b6f3c8bd6f1ef3f60f1c00171fdc458842cac59d7c9519f285fc6	A	N	Y	89090	2	1	20211127202320
20211016	1513109	1514390	1012747	7788	65c73079709b827acc9244a00ca7f35a111f1c9090bf55e05a85b623dc16629e	A	N	Y	89090	2	1	20211127202320
20211016	1513109	1514390	1012747	7788	3c02f1ddd447f1fac6ddf95274132fe52523394e2b51a232eb6ec005fb5bb882	A	N	Y	44545	1	1	20211127202320
20211016	1513109	1514390	1012747	7788	2c0fc49cef3d64beeb9dfb836736048f6b26c869cf11f501d45fbc095c54356a	A	N	Y	42318	1	1	20211127202320
20211016	1513109	1514390	1012747	7788	f2fa2bd8e9a09ce5af0a1c2c8705e7f734fc5ce18a1f0bd759648916391c331a	A	Y	Y	44545	1	1	20211127202320
20211016	1513109	1514390	1012747	7788	6d7cfb97f0a83390b4028fe039d007a128725b6e684547fd3ea5e80a7aaf26af	L	N	Y	44545	1	1	20211127202320
20211016	1513109	1514390	1012747	7788	e883cac9798f531e16f038f202a714d8dcab178cc3de1cf6d92922dd2ff51721	A	N	Y	44545	1	1	20211127202320
20211016	1513109	1514390	1012747	7788	d6038b197afdab5361238d90eb73229871b4f48149abe7c24ea81876ab737a78	A	N	Y	42318	1	1	20211127202320
20211016	1513109	1514390	1012747	7788	9b8e499ed00ccbfcf8ac45506cb41474f05330b174f380266685577cc0ad465c	A	N	Y	44545	1	1	20211127202320
20211016	1513109	1514390	1012747	7788	976cc1cd0877d21339bbd6ed3a505e0d9a8c9d452b65cd76ab950e25bc996852	A	N	Y	44545	1	1	20211127202320
20211016	1513109	1514390	1012747	7788	9a5640bd123a4ea79282c1f7ec2b5c74a7289af6273e492b9a27eba996bbca67	A	N	Y	41472	1	1	20211127202320
20211016	1513109	1514390	1012747	7788	0967c515f6c11a02c05fb6828eea8a19b4ab2faa32317cffd7385f0e68b8080c	A	N	Y	44545	1	1	20211127202320
20211016	1513109	1514390	1012747	7788	13f847059b7e866b1a43aa9804e8d766dc72834930ec0b52dedda9fa53536813	A	N	Y	42318	1	1	20211127202320
20211016	1513109	1514390	1012747	7788	446289a743a59671b8bc49d613833a74dcd1da5f3b412c63a9017229d9d85e88	A	N	Y	44545	1	1	20211127202320
20211016	1513109	1514390	1012747	7788	5c081a0996e306134afeaef80d166d25ef0d88fb37cc03752a6a73b4838d6ca8	A	N	Y	44545	1	1	20211127202320
20211016	1513109	1514390	1012747	7788	4a2e79d772e938221dc6c8a6885e926ec1b4502610e5bc0fbd5f5f0d66bdeaaa	A	N	Y	44545	1	1	20211127202320
20211016	1513109	1514390	1012747	7788	bb10efd169ee51612ee731c1a0477c110a9f3e093404420699bef24046946529	A	N	Y	44545	1	1	20211127202320
20211016	1513109	1514390	1012747	7788	ef62df828e593ff8413499a9768137c35becabcff6015b303e166197211730a7	A	N	Y	44545	1	1	20211127202320
20211016	1513109	1514390	1012747	7788	e649b7e34883ae4b0e44ac83a4610006e6c97a5bcff3d049b01e8d6851925fc5	A	N	Y	44545	1	1	20211127202320
20211016	1513109	1514390	1012747	7788	b4ceaf93421b0c8a88dc9c20cc1bb5e45b7d5c5fc54b38a7355275ca1b64ba33	A	N	Y	44545	1	1	20211127202320
20211016	1513109	1514390	1012747	7788	09b93affc45ff08744e2e05199430bc9ea927d2ae39cdb32ff40040cccf33e34	A	N	Y	44545	1	1	20211127202320
20211016	1513109	1514390	1012747	7788	43703ca86ac78c9f316bb4336161e175bd7bf05fac53d7c2f34272da1db85a20	L	N	Y	82527	2	2	20211127202320
20211016	1513109	1514390	1012747	7788	6e2eb111700e2192489789ff874003e1729d049c85502af2da576b07f2c45266	A	N	Y	44545	1	1	20211127202320
20211016	1513109	1514390	1012747	7788	b5d6a7f98b965a3b5c5c36d60e22b4ab318b7bc886ac37daf95714f1501226ef	A	N	Y	44545	1	1	20211127202320