SIGUNGU_CD	SIGUNGU_NM	SIDO_CD	ETL_DTM
0101	강릉시	01	20211113092550
0102	고성군	01	20211113092550
0103	동해시	01	20211113092550
0104	삼척시	01	20211113092550
0105	속초시	01	20211113092550
0106	양구군	01	20211113092550
0107	양양군	01	20211113092550
0108	영월군	01	20211113092550
0109	원주시	01	20211113092550
0110	인제군	01	20211113092550
0111	정선군	01	20211113092550
0112	철원군	01	20211113092550
0113	춘천시	01	20211113092550
0114	태백시	01	20211113092550
0115	평창군	01	20211113092550
0116	홍천군	01	20211113092550
0117	화천군	01	20211113092550
0118	횡성군	01	20211113092550
0201	가평군	02	20211113092550
0202	고양시 덕양구	02	20211113092550
0203	고양시 일산구	02	20211113092550
0204	과천시	02	20211113092550
0205	광명시	02	20211113092550
0206	광주시	02	20211113092550
0207	구리시	02	20211113092550
0208	군포시	02	20211113092550
0209	김포시	02	20211113092550
0210	남양주시	02	20211113092550